/*
 * Copyright 2010 Red Hat, Inc. and/or its affiliates.
 *
 * Licensed under the Apache License, Version 2.0 (the "License");
 * you may not use this file except in compliance with the License.
 * You may obtain a copy of the License at
 *
 *      http://www.apache.org/licenses/LICENSE-2.0
 *
 * Unless required by applicable law or agreed to in writing, software
 * distributed under the License is distributed on an "AS IS" BASIS,
 * WITHOUT WARRANTIES OR CONDITIONS OF ANY KIND, either express or implied.
 * See the License for the specific language governing permissions and
 * limitations under the License.
 */

package org.drools.examples.helloworld
 
import helloworld.HelloWorldExample.Message;

global java.util.List list
 
rule "Hello World"
    dialect "mvel"
    when
        m : Message( status == Message.HELLO, message : message )
    then
        System.out.println( message );
//        modify ( m ) { setMessage( "Goodbyte cruel world" ),
//                       setStatus( Message.GOODBYE ) };
    modify ( m ) { message = "Goodbye cruel world",
                   status = Message.GOODBYE };
end

rule "Good Bye"
    dialect "java"
    when
        Message( status == Message.GOODBYE, message : message )
    then
        System.out.println( message );
end
